{
   "game":"2018 Power-up",
   "timestamp":"2018-02-03",
   "groups":[
      {
         "group_id":"auton",
         "group_label":"Autonomous Period",
         "fields":[
            {
               "id":"a_starting_pos",
               "label":"Starting Position",
               "notes":"",
               "inputType":"radio",
               "choices":[
                  "Center",
                  "Exchange Zone",
                  "Far Side",
                  "Other"
               ]
            },
            {
               "id":"a_autorun",
               "label":"Auto-Run",
               "notes":"",
               "inputType":"radio",
               "choices":[
                  "Yes",
                  "No"
               ]
            },
            {
               "id":"a_cube_switch",
               "label":"Number of cubes placed on home switch",
               "notes":"",
               "inputType":"numberButton",
               "minValue":0,
               "maxValue":3,
               "defaultValue":0
            },
            {
               "id":"a_cube_scale",
               "label":"Number of cubes placed on scale",
               "notes":"",
               "inputType":"numberButton",
               "minValue":0,
               "maxValue":3,
               "defaultValue":0
            }
         ]
      },
      {
         "group_id":"teleop",
         "group_label":"Teleoperated Period",
         "fields":[
            {
               "id":"t_cube_switch_home",
               "label":"Number of cubes placed on home switch",
               "notes":"",
               "inputType":"numberButton",
               "minValue":0,
               "maxValue":20,
               "defaultValue":0
            },
            {
               "id":"t_cube_scale",
               "label":"Number of cubes placed on scale",
               "notes":"",
               "inputType":"numberButton",
               "minValue":0,
               "maxValue":20,
               "defaultValue":0
            },
            {
               "id":"t_cube_switch_away",
               "label":"Number of cubes placed on away switch",
               "notes":"",
               "inputType":"numberButton",
               "minValue":0,
               "maxValue":20,
               "defaultValue":0
            },
            {
               "id":"t_num_cubes_exchange",
               "label":"Number of Cubes Exchanged",
               "notes":"",
               "inputType":"numberButton",
               "minValue":0,
               "maxValue":9,
               "defaultValue":0
            },
            {
               "id":"t_active_hang",
               "label":"Robot Active Hang Time",
               "notes":"Leave this as 0 if the robot did not actively hang.",
               "inputType":"numberType",
               "minValue":0,
               "maxValue":30,
               "defaultValue":0
            },
            {
               "id":"t_hang_carry",
               "label":"Did this robot carry another robot to hang?",
               "notes":"",
               "inputType":"radio",
               "choices":[
                  "Yes",
                  "No"
               ]
            },
            {
               "id":"t_hang_pos",
               "label":"Hanging Position",
               "notes":"",
               "inputType":"radio",
               "choices":[
                  "Center Rung",
                  "Carried",
                  "Side",
                  "Other"
               ]
            },
            {
               "id":"t_defense",
               "label":"Did the robot play defense?",
               "notes":"",
               "inputType":"radio",
               "choices":[
                  "Yes",
                  "No"
               ]
            }
         ]
      },
      {
         "group_id":"post",
         "group_label":"Post-Game",
         "fields":[
            {
               "id":"p_defended",
               "label":"Was there substantial defense against this robot?",
               "partOfGame":"post",
               "notes":"",
               "inputType":"radio",
               "choices":[
                  "Yes",
                  "No"
               ]
            },
            {
               "id":"p_comments",
               "label":"Match Comments",
               "partOfGame":"post",
               "notes":"This is mandatory!",
               "inputType":"text",
               "maxlength":999,
               "rows":8,
               "cols":50,
               "placeholder":"Max character count is 999"
            },
            {
               "id":"p_replay",
               "label":"Was this match a replay?",
               "partOfGame":"post",
               "notes":"",
               "inputType":"radio",
               "choices":[
                  "Yes",
                  "No"
               ]
            }
         ]
      }
   ]
}